module game-invitation-task

go 1.22

require (
	github.com/caarlos0/env/v6 v6.10.1
	github.com/deepmap/oapi-codegen v1.16.2
	github.com/getkin/kin-openapi v0.118.0
	github.com/labstack/echo/v4 v4.11.4
	github.com/nats-io/nats.go v1.34.1
	github.com/oapi-codegen/echo-middleware v1.0.1
	github.com/oapi-codegen/runtime v1.1.1
	github.com/onsi/ginkgo/v2 v2.17.3
	github.com/onsi/gomega v1.33.0
	github.com/stretchr/testify v1.8.4
	go.mongodb.org/mongo-driver v1.15.0
	gopkg.in/yaml.v2 v2.4.0
)

require (
	github.com/apapsch/go-jsonmerge/v2 v2.0.0 // indirect
	github.com/davecgh/go-spew v1.1.1 // indirect
	github.com/go-logr/logr v1.4.1 // indirect
	github.com/go-openapi/jsonpointer v0.19.6 // indirect
	github.com/go-openapi/swag v0.22.4 // indirect
	github.com/go-task/slim-sprig/v3 v3.0.0 // indirect
	github.com/golang-jwt/jwt v3.2.2+incompatible // indirect
	github.com/golang/snappy v0.0.4 // indirect
	github.com/google/go-cmp v0.6.0 // indirect
	github.com/google/pprof v0.0.0-20240424215950-a892ee059fd6 // indirect
	github.com/google/uuid v1.5.0 // indirect
	github.com/gorilla/mux v1.8.0 // indirect
	github.com/invopop/yaml v0.2.0 // indirect
	github.com/josharian/intern v1.0.0 // indirect
	github.com/klauspost/compress v1.17.2 // indirect
	github.com/labstack/gommon v0.4.2 // indirect
	github.com/mailru/easyjson v0.7.7 // indirect
	github.com/mattn/go-colorable v0.1.13 // indirect
	github.com/mattn/go-isatty v0.0.20 // indirect
	github.com/mohae/deepcopy v0.0.0-20170929034955-c48cc78d4826 // indirect
	github.com/montanaflynn/stats v0.0.0-20171201202039-1bf9dbcd8cbe // indirect
	github.com/nats-io/nkeys v0.4.7 // indirect
	github.com/nats-io/nuid v1.0.1 // indirect
	github.com/perimeterx/marshmallow v1.1.4 // indirect
	github.com/pmezard/go-difflib v1.0.0 // indirect
	github.com/valyala/bytebufferpool v1.0.0 // indirect
	github.com/valyala/fasttemplate v1.2.2 // indirect
	github.com/xdg-go/pbkdf2 v1.0.0 // indirect
	github.com/xdg-go/scram v1.1.2 // indirect
	github.com/xdg-go/stringprep v1.0.4 // indirect
	github.com/youmark/pkcs8 v0.0.0-20181117223130-1be2e3e5546d // indirect
	golang.org/x/crypto v0.22.0 // indirect
	golang.org/x/mod v0.17.0 // indirect
	golang.org/x/net v0.24.0 // indirect
	golang.org/x/sync v0.7.0 // indirect
	golang.org/x/sys v0.19.0 // indirect
	golang.org/x/text v0.14.0 // indirect
	golang.org/x/time v0.5.0 // indirect
	golang.org/x/tools v0.20.0 // indirect
	gopkg.in/yaml.v3 v3.0.1 // indirect
)
